time_stamp,Tomorrow.io,OpenWeatherMap,mean
2023-01-02 21:00:55.998636,51,99,75
2023-01-02 21:00:57.455472,51,99,75
2023-01-04 14:10:54.604712;;;
2023-01-04 14:11:15.657971;;;
2023-01-04 14:11:36.716613;77;100;88
2023-01-04 14:11:38.207391;77;100;88
2023-01-04 14:11:39.718767;77;100;88
2023-01-04 14:11:41.079739;77;100;88
2023-01-04 14:11:42.514598;77;100;88
2023-01-04 14:11:43.950552;77;100;88
2023-01-04 14:11:45.342891;77;100;88
2023-01-04 14:11:46.795304;77;100;88
2023-01-04 14:11:48.229775;77;100;88
2023-01-04 14:11:49.607250;77;100;88
2023-01-04 14:11:51.406495;77;100;88
2023-01-04 14:11:52.795482;77;100;88
2023-01-04 14:11:54.207084;77;100;88
2023-01-04 14:12:06.564618;77;100;88
2023-01-04 14:13:06.944086;77;100;88
